%YAML 1.1
%TAG !u! tag:unity3d.com,2011:
--- !u!114 &11400000
MonoBehaviour:
  m_ObjectHideFlags: 0
  m_CorrespondingSourceObject: {fileID: 0}
  m_PrefabInstance: {fileID: 0}
  m_PrefabAsset: {fileID: 0}
  m_GameObject: {fileID: 0}
  m_Enabled: 1
  m_EditorHideFlags: 0
  m_Script: {fileID: 11500000, guid: e8606aabe9e416847be05cbf1ecc0f9a, type: 3}
  m_Name: Event_Admin_ReturnToCategoryExplorer
  m_EditorClassIdentifier: 
  _colorIdentifier: {r: 0.6313726, g: 0.50663525, b: 0.2352941, a: 0.8039216}
  listeners: []
