%YAML 1.1
%TAG !u! tag:unity3d.com,2011:
--- !u!1045 &1
EditorBuildSettings:
  m_ObjectHideFlags: 0
  serializedVersion: 2
  m_Scenes:
  - enabled: 1
    path: Assets/_Project/Scenes/0_GameModeSelection.unity
    guid: 5ac9db434a9518c4d9b5db3364534465
  - enabled: 1
    path: Assets/_Project/Scenes/1_Multiplayer.unity
    guid: 76ef9053895706a44939d82c76045a26
  - enabled: 1
    path: Assets/_Project/Scenes/2_Multiplayer_2.unity
    guid: 73cff970f50bdb749b7fb8a2e3b87d06
  m_configObjects: {}
