%YAML 1.1
%TAG !u! tag:unity3d.com,2011:
--- !u!114 &11400000
MonoBehaviour:
  m_ObjectHideFlags: 0
  m_CorrespondingSourceObject: {fileID: 0}
  m_PrefabInstance: {fileID: 0}
  m_PrefabAsset: {fileID: 0}
  m_GameObject: {fileID: 0}
  m_Enabled: 1
  m_EditorHideFlags: 0
  m_Script: {fileID: 11500000, guid: 2b05e9e7fcdd221489e843e55ddd3131, type: 3}
  m_Name: QuestionsData
  m_EditorClassIdentifier: 
  questionsData:
    categories:
    - name: Test 0
      spriteId: 0
      levelsOfKnowledge:
      - Some test level
      levelsOfKnowledgeXP: 64000000
    - name: Test 1
      spriteId: 8
      levelsOfKnowledge:
      - Some test level
      levelsOfKnowledgeXP: 64000000
    - name: Test 2
      spriteId: 2
      levelsOfKnowledge:
      - Some test level
      levelsOfKnowledgeXP: 64000000
    questions:
    - category: 
      levelOfKnowledge: 
      question: 
      answers:
      - 
      - 
      - 
      - 
      answers_isCorrect: 00000000000000000000000000000000
